{
	"type": "Collection",
	"properties": {
		"titulo": {
			"name": "titulo",
			"type": "string",
			"typeLabel": "string",
			"required": false,
			"id": "titulo",
			"order": 0
		},
		"contenido": {
			"name": "contenido",
			"type": "string",
			"typeLabel": "string",
			"required": false,
			"id": "contenido",
			"order": 1
		},
		"imagen": {
			"name": "imagen",
			"type": "string",
			"typeLabel": "string",
			"required": false,
			"id": "imagen",
			"order": 2
		},
		"fecha": {
			"name": "fecha",
			"type": "string",
			"typeLabel": "string",
			"required": false,
			"id": "fecha",
			"order": 3
		}
	}
}